module d/go

go 1.17

require (
	github.com/google/uuid v1.3.0
	github.com/gorilla/handlers v1.5.1
	github.com/gorilla/mux v1.8.0
	github.com/jackc/pgx/v4 v4.15.0
	github.com/lib/pq v1.10.4 // indirect
	github.com/rs/cors v1.8.2
	golang.org/x/crypto v0.0.0-20220214200702-86341886e292
)

require (
	github.com/felixge/httpsnoop v1.0.1 // indirect
	github.com/jackc/chunkreader/v2 v2.0.1 // indirect
	github.com/jackc/pgconn v1.11.0 // indirect
	github.com/jackc/pgio v1.0.0 // indirect
	github.com/jackc/pgpassfile v1.0.0 // indirect
	github.com/jackc/pgproto3/v2 v2.2.0 // indirect
	github.com/jackc/pgservicefile v0.0.0-20200714003250-2b9c44734f2b // indirect
	github.com/jackc/pgtype v1.10.0 // indirect
	github.com/jackc/puddle v1.2.1 // indirect
	github.com/pkg/errors v0.9.1 // indirect
	golang.org/x/text v0.3.7 // indirect
)
